0.12500, -2.33721
0.15000, -1.67225
0.17500, -1.26610
0.20000, -0.99951
0.22500, -0.81504
0.25000, -0.68219
0.27500, -0.58352
0.30000, -0.50847
0.32500, -0.45031
0.35000, -0.40460
0.37500, -0.36829
0.40000, -0.33926
0.42500, -0.31597
0.45000, -0.29728
0.47500, -0.28235
0.50000, -0.27053
0.52500, -0.26133
0.55000, -0.25435
0.57500, -0.24928
0.60000, -0.24587
0.62500, -0.24392
0.65000, -0.24327
0.67500, -0.24378
0.70000, -0.24534
0.72500, -0.24786
0.75000, -0.25124
0.77500, -0.25544
0.80000, -0.26038
0.82500, -0.26603
0.85000, -0.27233
0.87500, -0.27926
0.90000, -0.28678
0.92500, -0.29486
0.95000, -0.30349
0.97500, -0.31262
1.00000, -0.32226
1.02500, -0.33238
1.05000, -0.34297
1.07500, -0.35401
1.10000, -0.36550
1.12500, -0.37742
1.15000, -0.38976
1.17500, -0.40251
1.20000, -0.41567
1.22500, -0.42923
1.25000, -0.44319
1.27500, -0.45753
1.30000, -0.47225
1.32500, -0.48735
1.35000, -0.50283
1.37500, -0.51867
1.40000, -0.53488
1.42500, -0.55145
1.45000, -0.56839
1.47500, -0.58567
1.50000, -0.60332
1.52500, -0.62131
1.55000, -0.63965
1.57500, -0.65834
1.60000, -0.67738
1.62500, -0.69676
1.65000, -0.71648
1.67500, -0.73654
1.70000, -0.75693
1.72500, -0.77767
1.75000, -0.79874
1.77500, -0.82015
1.80000, -0.84189
1.82500, -0.86397
1.85000, -0.88637
1.87500, -0.90911
1.90000, -0.93218
1.92500, -0.95558
1.95000, -0.97930
1.97500, -1.00335
2.00000, -1.02773
2.02500, -1.05244
2.05000, -1.07747
2.07500, -1.10283
2.10000, -1.12852
2.12500, -1.15452
2.15000, -1.18085
2.17500, -1.20751
2.20000, -1.23449
2.22500, -1.26179
2.25000, -1.28941
2.27500, -1.31735
2.30000, -1.34562
2.32500, -1.37420
2.35000, -1.40311
2.37500, -1.43234
2.40000, -1.46189
2.42500, -1.49176
2.45000, -1.52194
2.47500, -1.55245
2.50000, -1.58328
2.52500, -1.61442
2.55000, -1.64589
2.57500, -1.67767
2.60000, -1.70977
2.62500, -1.74219
2.65000, -1.77493
2.67500, -1.80798
2.70000, -1.84135
2.72500, -1.87504
2.75000, -1.90905
2.77500, -1.94337
2.80000, -1.97801
2.82500, -2.01297
2.85000, -2.04825
2.87500, -2.08384
2.90000, -2.11975
2.92500, -2.15597
2.95000, -2.19251
2.97500, -2.22937
3.00000, -2.26654
3.02500, -2.30403
3.05000, -2.34183
3.07500, -2.37995
3.10000, -2.41839
3.12500, -2.45714
3.15000, -2.49620
3.17500, -2.53559
3.20000, -2.57528
3.22500, -2.61530
3.25000, -2.65562
3.27500, -2.69627
3.30000, -2.73722
3.32500, -2.77850
3.35000, -2.82008
3.37500, -2.86199
3.40000, -2.90420
3.42500, -2.94674
3.45000, -2.98958
3.47500, -3.03274
3.50000, -3.07622
3.52500, -3.12001
3.55000, -3.16411
3.57500, -3.20853
3.60000, -3.25327
3.62500, -3.29831
3.65000, -3.34368
3.67500, -3.38935
3.70000, -3.43534
3.72500, -3.48165
3.75000, -3.52827
3.77500, -3.57520
3.80000, -3.62245
3.82500, -3.67001
3.85000, -3.71788
3.87500, -3.76607
3.90000, -3.81457
3.92500, -3.86339
3.95000, -3.91252
3.97500, -3.96197
4.00000, -4.01172
4.02500, -4.06180
4.05000, -4.11218
4.07500, -4.16288
4.10000, -4.21389
4.12500, -4.26522
4.15000, -4.31686
4.17500, -4.36881
4.20000, -4.42108
4.22500, -4.47366
4.25000, -4.52656
4.27500, -4.57977
4.30000, -4.63329
4.32500, -4.68712
4.35000, -4.74127
4.37500, -4.79573
4.40000, -4.85051
4.42500, -4.90560
4.45000, -4.96100
4.47500, -5.01672
4.50000, -5.07275
4.52500, -5.12909
4.55000, -5.18574
4.57500, -5.24271
4.60000, -5.29999
4.62500, -5.35759
4.65000, -5.41550
4.67500, -5.47372
4.70000, -5.53226
4.72500, -5.59110
4.75000, -5.65027
4.77500, -5.70974
4.80000, -5.76953
4.82500, -5.82963
4.85000, -5.89005
4.87500, -5.95077
4.90000, -6.01181
4.92500, -6.07317
4.95000, -6.13483
4.97500, -6.19681
5.00000, -6.25911
5.02500, -6.32171
5.05000, -6.38463
5.07500, -6.44787
5.10000, -6.51141
